Using cable "USB-Blaster [USB-0]", device 1, instance 0x00
Processor is already paused
Reading System ID at address 0x00000098: verified
Initializing CPU cache (if present)
OK
Downloading 10000000 ( 0%)Downloading 10010000 (55%)Downloading 1001D108 (92%)Downloaded 117KB in 1.9s (61.5KB/s)
Verifying 10000000 ( 0%)Verifying 10010000 (55%)Verifying 1001D108 (92%)Verified OK                         
Starting processor at address 0x10000230
